## Title: Swatter |cff224477(lib)
## Notes: Debugging tool for handling and displaying of error messages in a useful way.
##
## Interface: 80205
## SavedVariables: SwatterData
##
## Version: <%version%> (<%codename%>)
## Revision: $Id$
## Author: Norganna's AddOns
## X-Part-Of: Libraries
## X-Category: Library
## X-Max-Interface: 80100
## X-URL: http://zip.norganna.org/libs/!Swatter/
## X-Feedback: http://forums.norganna.org
##
Support\Load.xml
Swatter.lua
